…
    Code
      normalise(dt, index = norm_quantile(.fit))
    Output
      Index pipeline: 
      
      Steps: 
    Message
      temporal: `rolling_window()` -> .agg
      distribution_fit: `distfit_gamma()` -> .fit
      normalise: `norm_quantile()` -> index
    Output
      
      Data: 
      # A tibble: 369 x 14
         id     month       ym  prcp  tmax  tmin  tavg  long   lat name   .agg    .fit
         <chr>  <dbl>    <mth> <dbl> <dbl> <dbl> <dbl> <dbl> <dbl> <chr> <dbl>   <dbl>
       1 ASN00~     1 1990 Jan   882  27.0 15.2  21.1   152. -29.0 tent~   882 7.25e-8
       2 ASN00~     2 1990 Feb  1260  26.1 16.0  21.0   152. -29.0 tent~  2142 1.72e-5
       3 ASN00~     3 1990 Mar   254  23.8 13.4  18.6   152. -29.0 tent~  2396 1.29e-4
       4 ASN00~     4 1990 Apr  1594  20.4 12.5  16.5   152. -29.0 tent~  3990 1.28e-2
       5 ASN00~     5 1990 May  1220  19.1  6.66 12.9   152. -29.0 tent~  5210 1.06e-1
       6 ASN00~     6 1990 Jun   394  14.6  3.19  8.88  152. -29.0 tent~  5604 1.57e-1
       7 ASN00~     7 1990 Jul   618  15.5  1.95  8.75  152. -29.0 tent~  6222 2.58e-1
       8 ASN00~     8 1990 Aug   334  14.3  2.49  8.41  152. -29.0 tent~  6556 3.30e-1
       9 ASN00~     9 1990 Sep   266  18.7  5.4  12.1   152. -29.0 tent~  6822 3.96e-1
      10 ASN00~    10 1990 Oct   362  23.3  7.6  15.4   152. -29.0 tent~  7184 4.78e-1
      # i 359 more rows
      # i 2 more variables: .fit_obj <list>, index <dbl>
…
