The normalising module — augment • tidyindex
…
  dist_fit(.dist = gamma(), .method = "lmoms", .var = .agg) %>%
  augment(.var = .agg)
#> Joining with `by = join_by(variables)`
#> Removing the pending NAs due to aggregation
#> Index pipeline: 
#> 
#> Summary: 
#> temporal: `slider::slide_dbl(.x = ~prcp, sum, .before = 12 - 1, .complete =
#> TRUE)` -> .agg
#> dist fit: `NA` -> .fit
#> normalise: `NA` -> .fitted
#> normalise: `qnorm(.fitted)` -> .index
#> 
#> Data: 
#> # A tibble: 358 × 16
#>    .period id                ym  prcp  tmax   tmin  tavg  long   lat name   .agg
#>      <dbl> <chr>          <mth> <dbl> <dbl>  <dbl> <dbl> <dbl> <dbl> <chr> <dbl>
#>  1      12 ASN00056032 1990 Dec   640  30.4 14.7   22.6   152. -29.0 tent…  8382
#>  2       1 ASN00056032 1991 Jan  1108  27.5 15.9   21.7   152. -29.0 tent…  8608
#>  3       2 ASN00056032 1991 Feb   628  28.0 15.5   21.8   152. -29.0 tent…  7976
#>  4       3 ASN00056032 1991 Mar   204  26.2 11.8   19.0   152. -29.0 tent…  7926
#>  5       4 ASN00056032 1991 Apr    44  24.2  6.57  15.4   152. -29.0 tent…  6376
#>  6       5 ASN00056032 1991 May   630  21.3  7.52  14.4   152. -29.0 tent…  5786
#>  7       6 ASN00056032 1991 Jun   242  19.6  3.65  11.6   152. -29.0 tent…  5634
#>  8       7 ASN00056032 1991 Jul   580  15.3  0.519  7.91  152. -29.0 tent…  5596
#>  9       8 ASN00056032 1991 Aug    14  17.8  1.67   9.76  152. -29.0 tent…  5276
#> 10       9 ASN00056032 1991 Sep    78  21.1  3.07  12.1   152. -29.0 tent…  5088
#> # ℹ 348 more rows
#> # ℹ 5 more variables: .scale <dbl>, .method <chr>, .fitted <dbl>, .dist <chr>,
#> #   .index <dbl>
…
