Calculating PET — calc_pet • indri
…
...
the variable to use

    Value

a data frame with the variable pet calculated

    Examples

if (require(SPEI, quietly = TRUE)){
tenterfield %>%
  calc_pet(method = "thornthwaite", id = id, Tave = tavg, lat = -29.0479)
}
#> # Package SPEI (1.7) loaded [try SPEINews()].
#> # A tibble: 369 × 5
#>    id                ym  prcp  tavg   pet
#>    <chr>          <mth> <dbl> <dbl> <dbl>
#>  1 ASN00056032 1990 Jan   882 21.1  112. 
#>  2 ASN00056032 1990 Feb  1260 21.0   96.9
#>  3 ASN00056032 1990 Mar   254 18.6   83.7
#>  4 ASN00056032 1990 Apr  1594 16.5   62.7
#>  5 ASN00056032 1990 May  1220 12.9   42.2
#>  6 ASN00056032 1990 Jun   394  8.88  22.7
#>  7 ASN00056032 1990 Jul   618  8.75  23.3
#>  8 ASN00056032 1990 Aug   334  8.41  23.2
#>  9 ASN00056032 1990 Sep   266 12.1   41.3
#> 10 ASN00056032 1990 Oct   362 15.4   66.2
#> # … with 359 more rows
…
