Pre-built indexes — idx_spei • tidyindex
…
#> [1] "Checking for missing values (`NA`): all the data must be complete. Input type is vector. Assuming the data are monthly time series starting in January, all regular (non-leap) years."
#> Removing the pending NAs due to aggregation
#> Index pipeline: 
#> 
#> Summary: 
#> var_trans: `.pet_method(.tavg = ~tavg, .lat = ~lat)` -> pet
#> dim_red: `prcp - pet` -> diff
#> temporal: `slider::slide_dbl(.x = ~diff, sum, .before = 12 - 1, .complete =
#> TRUE)` -> .agg
#> dist fit: `NA` -> .fit
#> normalise: `NA` -> .fitted
#> normalise: `qnorm(.fitted)` -> .index
#> 
#> Data: 
#> # A tibble: 358 × 18
#>    .period id          ym  prcp  tmax   tmin  tavg  long   lat name    pet  diff
#>      <dbl> <chr>    <mth> <dbl> <dbl>  <dbl> <dbl> <dbl> <dbl> <chr> <dbl> <dbl>
#>  1      12 ASN0… 1990 Dec   640  30.4 14.7   22.6   152. -29.0 tent… 127.  513. 
#>  2       1 ASN0… 1991 Jan  1108  27.5 15.9   21.7   152. -29.0 tent… 118.  990. 
#>  3       2 ASN0… 1991 Feb   628  28.0 15.5   21.8   152. -29.0 tent… 102.  526. 
#>  4       3 ASN0… 1991 Mar   204  26.2 11.8   19.0   152. -29.0 tent…  86.7 117. 
#>  5       4 ASN0… 1991 Apr    44  24.2  6.57  15.4   152. -29.0 tent…  56.6 -12.6
#>  6       5 ASN0… 1991 May   630  21.3  7.52  14.4   152. -29.0 tent…  49.5 580. 
#>  7       6 ASN0… 1991 Jun   242  19.6  3.65  11.6   152. -29.0 tent…  33.5 208. 
#>  8       7 ASN0… 1991 Jul   580  15.3  0.519  7.91  152. -29.0 tent…  19.8 560. 
#>  9       8 ASN0… 1991 Aug    14  17.8  1.67   9.76  152. -29.0 tent…  28.8 -14.8
#> 10       9 ASN0… 1991 Sep    78  21.1  3.07  12.1   152. -29.0 tent…  41.4  36.6
#> # … with 348 more rows, and 6 more variables: .agg <dbl>, .scale <dbl>,
#> #   .method <chr>, .fitted <dbl>, .dist <chr>, .index <dbl>
tenterfield %>% init(id = id, time = ym) %>% idx_spi()
#> Removing the pending NAs due to aggregation
#> Index pipeline: 
#> 
#> Summary: 
#> temporal: `slider::slide_dbl(.x = ~prcp, sum, .before = 12 - 1, .complete =
#> TRUE)` -> .agg
#> dist fit: `NA` -> .fit
#> normalise: `NA` -> .fitted
#> normalise: `qnorm(.fitted)` -> .index
#> 
#> Data: 
#> # A tibble: 358 × 16
#>    .period id                ym  prcp  tmax   tmin  tavg  long   lat name   .agg
#>      <dbl> <chr>          <mth> <dbl> <dbl>  <dbl> <dbl> <dbl> <dbl> <chr> <dbl>
#>  1      12 ASN00056032 1990 Dec   640  30.4 14.7   22.6   152. -29.0 tent…  8382
#>  2       1 ASN00056032 1991 Jan  1108  27.5 15.9   21.7   152. -29.0 tent…  8608
#>  3       2 ASN00056032 1991 Feb   628  28.0 15.5   21.8   152. -29.0 tent…  7976
#>  4       3 ASN00056032 1991 Mar   204  26.2 11.8   19.0   152. -29.0 tent…  7926
#>  5       4 ASN00056032 1991 Apr    44  24.2  6.57  15.4   152. -29.0 tent…  6376
#>  6       5 ASN00056032 1991 May   630  21.3  7.52  14.4   152. -29.0 tent…  5786
#>  7       6 ASN00056032 1991 Jun   242  19.6  3.65  11.6   152. -29.0 tent…  5634
#>  8       7 ASN00056032 1991 Jul   580  15.3  0.519  7.91  152. -29.0 tent…  5596
#>  9       8 ASN00056032 1991 Aug    14  17.8  1.67   9.76  152. -29.0 tent…  5276
#> 10       9 ASN00056032 1991 Sep    78  21.1  3.07  12.1   152. -29.0 tent…  5088
#> # … with 348 more rows, and 5 more variables: .scale <dbl>, .method <chr>,
#> #   .fitted <dbl>, .dist <chr>, .index <dbl>
tenterfield %>% init(id = id, time = ym) %>% idx_edi()
#> Removing the pending NAs due to aggregation
#> Index pipeline: 
#> 
#> Summary: 
#> var_trans: `rev(digamma(dplyr::row_number() + 1) - digamma(1))` -> w
#> var_trans: `prcp * w` -> mult
#> temporal: `slider::slide_dbl(.x = ~mult, sum, .before = 12 - 1, .complete =
#> TRUE)` -> ep
#> var_trans: `rescale_zscore(var = ~ep)` -> .index
#> 
#> Data: 
#> # A tibble: 358 × 14
#> # Groups:   id [1]
#>    id          ym  prcp  tmax   tmin  tavg  long   lat name      w   mult     ep
#>    <chr>    <mth> <dbl> <dbl>  <dbl> <dbl> <dbl> <dbl> <chr> <dbl>  <dbl>  <dbl>
#>  1 ASN0… 1990 Dec   640  30.4 14.7   22.6   152. -29.0 tent…  6.46 4134.  54292.
#>  2 ASN0… 1991 Jan  1108  27.5 15.9   21.7   152. -29.0 tent…  6.46 7154.  55722.
#>  3 ASN0… 1991 Feb   628  28.0 15.5   21.8   152. -29.0 tent…  6.45 4053.  51601.
#>  4 ASN0… 1991 Mar   204  26.2 11.8   19.0   152. -29.0 tent…  6.45 1316.  51270.
#>  5 ASN0… 1991 Apr    44  24.2  6.57  15.4   152. -29.0 tent…  6.45  284.  41223.
#>  6 ASN0… 1991 May   630  21.3  7.52  14.4   152. -29.0 tent…  6.45 4060.  37380.
#>  7 ASN0… 1991 Jun   242  19.6  3.65  11.6   152. -29.0 tent…  6.44 1559.  36387.
#>  8 ASN0… 1991 Jul   580  15.3  0.519  7.91  152. -29.0 tent…  6.44 3735.  36122.
#>  9 ASN0… 1991 Aug    14  17.8  1.67   9.76  152. -29.0 tent…  6.44   90.1 34051.
#> 10 ASN0… 1991 Sep    78  21.1  3.07  12.1   152. -29.0 tent…  6.43  502.  32832.
#> # … with 348 more rows, and 2 more variables: .scale <dbl>, .index <dbl>
…
