The temporal processing module — temporal_aggregate • tidyindex
…
an index table object

    Examples

tenterfield |>
  init(time = ym) |>
  temporal_aggregate(.agg = temporal_rolling_window(prcp, scale = 12))
#> Index pipeline: 
#> 
#> Steps: 
#> temporal: `rolling_window()` -> .agg
#> 
#> Data: 
#> # A tibble: 369 × 10
#>    id                ym  prcp  tmax  tmin  tavg  long   lat name            .agg
#>    <chr>          <mth> <dbl> <dbl> <dbl> <dbl> <dbl> <dbl> <chr>          <dbl>
#>  1 ASN00056032 1990 Jan   882  27.0 15.2  21.1   152. -29.0 tenterfield (…   882
#>  2 ASN00056032 1990 Feb  1260  26.1 16.0  21.0   152. -29.0 tenterfield (…  2142
#>  3 ASN00056032 1990 Mar   254  23.8 13.4  18.6   152. -29.0 tenterfield (…  2396
#>  4 ASN00056032 1990 Apr  1594  20.4 12.5  16.5   152. -29.0 tenterfield (…  3990
#>  5 ASN00056032 1990 May  1220  19.1  6.66 12.9   152. -29.0 tenterfield (…  5210
#>  6 ASN00056032 1990 Jun   394  14.6  3.19  8.88  152. -29.0 tenterfield (…  5604
#>  7 ASN00056032 1990 Jul   618  15.5  1.95  8.75  152. -29.0 tenterfield (…  6222
#>  8 ASN00056032 1990 Aug   334  14.3  2.49  8.41  152. -29.0 tenterfield (…  6556
#>  9 ASN00056032 1990 Sep   266  18.7  5.4  12.1   152. -29.0 tenterfield (…  6822
#> 10 ASN00056032 1990 Oct   362  23.3  7.6  15.4   152. -29.0 tenterfield (…  7184
#> # ℹ 359 more rows

# multiple ids (groups), and multiple scales
queensland |>
  dplyr::filter(id %in% c("ASN00029038", "ASN00029127")) |>
  init(id = id, time = ym)
#> Index pipeline: 
#> Summary: NULL
#> 
#> Data: 
#> # A tibble: 776 × 9
#>    id                ym  prcp  tmax  tmin  tavg  long   lat name             
#>    <chr>          <mth> <dbl> <dbl> <dbl> <dbl> <dbl> <dbl> <chr>            
#>  1 ASN00029038 1990 Jan  1682  34.3  24.7  29.5  142. -15.5 KOWANYAMA AIRPORT
#>  2 ASN00029038 1990 Feb   416  35.2  23.2  29.2  142. -15.5 KOWANYAMA AIRPORT
#>  3 ASN00029038 1990 Mar  2026  32.5  23.6  28.0  142. -15.5 KOWANYAMA AIRPORT
#>  4 ASN00029038 1990 Apr   597  32.9  17.7  25.3  142. -15.5 KOWANYAMA AIRPORT
#>  5 ASN00029038 1990 May   244  31.8  20.1  25.9  142. -15.5 KOWANYAMA AIRPORT
#>  6 ASN00029038 1990 Jun   170  29.7  16.2  23.0  142. -15.5 KOWANYAMA AIRPORT
#>  7 ASN00029038 1990 Jul   102  31.2  17.2  24.2  142. -15.5 KOWANYAMA AIRPORT
#>  8 ASN00029038 1990 Aug     0  31.3  13.1  22.2  142. -15.5 KOWANYAMA AIRPORT
#>  9 ASN00029038 1990 Sep     0  32.8  16.3  24.5  142. -15.5 KOWANYAMA AIRPORT
#> 10 ASN00029038 1990 Oct     0  36.8  21.5  29.2  142. -15.5 KOWANYAMA AIRPORT
#> # ℹ 766 more rows
…
