AQI Demo • tidyindex
…
Each individual AQI value is rounded to the nearest integer, and the highest value among the six pollutant is taken as the final AQI.

As an example, with an 8-hour measurement of CO value of 4.67, this value is first truncate to 4.6. For CO concentrations ranging from 4.5 to 9.4, the corresponding AQI range is 51 to 100. Using the formula above, the AQI is calculated as follows:

100−519.4−4.5×(4.6−4.5)+51=75.01,\frac{100 - 51}{9.4 - 4.5}\times(4.6 - 4.5) + 51 = 75.01,

This gives an AQI value of 75 for CO after rounding.

Construct AQI with tidyindex

In this section, we will demonstrate how to compute the AQI using the tidyindex package. The aqi data, available in the tidyindex package, contains daily PM2.5 values recorded from January to March 2024 at three monitoring sites in Travis county, Texas, USA.

aqi
#> # A tibble: 272 × 9
#>    pollutant  code date       value   aqi  long   lat site_code site_name       
#>    <chr>     <dbl> <date>     <dbl> <int> <dbl> <dbl>     <dbl> <chr>           
#>  1 PM2.5     88101 2024-01-01  10      53 -97.8  30.4        14 Austin North Hi…
#>  2 PM2.5     88101 2024-01-02   9.1    51 -97.8  30.4        14 Austin North Hi…
#>  3 PM2.5     88101 2024-01-03   7.1    39 -97.8  30.4        14 Austin North Hi…
#>  4 PM2.5     88101 2024-01-04  10.3    53 -97.8  30.4        14 Austin North Hi…
#>  5 PM2.5     88101 2024-01-05   3.7    21 -97.8  30.4        14 Austin North Hi…
#>  6 PM2.5     88101 2024-01-06   4.5    25 -97.8  30.4        14 Austin North Hi…
#>  7 PM2.5     88101 2024-01-07   6.2    34 -97.8  30.4        14 Austin North Hi…
#>  8 PM2.5     88101 2024-01-08   7.5    42 -97.8  30.4        14 Austin North Hi…
#>  9 PM2.5     88101 2024-01-09   2.7    15 -97.8  30.4        14 Austin North Hi…
#> 10 PM2.5     88101 2024-01-10   7.5    42 -97.8  30.4        14 Austin North Hi…
#> # ℹ 262 more rows
…
The lookup_helper() function finds the high and low breakpoints for any given samples. The breakpoint_lookup() function first truncates each measurement based on the pollutant, then calls lookup_helper() to augment the high/low breakpoints and group information.

(aqi_aug <- breakpoint_lookup(aqi))
#> # A tibble: 272 × 12
#>    pollutant  code group            low  high date       value   aqi  long   lat
#>    <chr>     <dbl> <chr>          <dbl> <dbl> <date>     <dbl> <int> <dbl> <dbl>
#>  1 PM2.5     88101 Unhealthy        9.1  35.4 2024-01-01  10      53 -97.8  30.4
#>  2 PM2.5     88101 Unhealthy        9.1  35.4 2024-01-02   9.1    51 -97.8  30.4
#>  3 PM2.5     88101 Very Unhealthy   0     9   2024-01-03   7.1    39 -97.8  30.4
#>  4 PM2.5     88101 Unhealthy        9.1  35.4 2024-01-04  10.3    53 -97.8  30.4
#>  5 PM2.5     88101 Very Unhealthy   0     9   2024-01-05   3.7    21 -97.8  30.4
#>  6 PM2.5     88101 Very Unhealthy   0     9   2024-01-06   4.5    25 -97.8  30.4
#>  7 PM2.5     88101 Very Unhealthy   0     9   2024-01-07   6.2    34 -97.8  30.4
#>  8 PM2.5     88101 Very Unhealthy   0     9   2024-01-08   7.5    42 -97.8  30.4
#>  9 PM2.5     88101 Very Unhealthy   0     9   2024-01-09   2.7    15 -97.8  30.4
#> 10 PM2.5     88101 Very Unhealthy   0     9   2024-01-10   7.5    42 -97.8  30.4
#> # ℹ 262 more rows
#> # ℹ 2 more variables: site_code <dbl>, site_name <chr>
…
The construction of AQI can be divided into two steps:

a minmax rescaling step: Irescaled=Cp−BPLoBPHi−BPLoI_{rescaled} = \frac{\text{C}_\text{p} - \text{BP}_\text{Lo}}{\text{BP}_\text{Hi} - \text{BP}_\text{Lo}}

a variable transformation step (affine transformation): (IHi−ILo)×Irescaled+ILo(\text{I}_\text{Hi} - \text{I}_\text{Lo}) \times I_{rescaled} + \text{I}_\text{Lo}.

Rescaling

The minmax rescaling is performed by the rescaling module and the rescale_minmax() step requires min and max argument, which correspond to teh low and high breakpoints we’ve looked up. The rescaled values are stored in the minmax column.

pipeline <- init(aqi_aug) |> 
  rescaling(minmax = rescale_minmax(value, min = low, max = high))

pipeline$data %>% dplyr::select(pollutant, date, low, high, value, minmax)
#> # A tibble: 272 × 6
#>    pollutant date         low  high value minmax
#>    <chr>     <date>     <dbl> <dbl> <dbl>  <dbl>
#>  1 PM2.5     2024-01-01   9.1  35.4  10   0.0342
#>  2 PM2.5     2024-01-02   9.1  35.4   9.1 0     
#>  3 PM2.5     2024-01-03   0     9     7.1 0.789 
#>  4 PM2.5     2024-01-04   9.1  35.4  10.3 0.0456
#>  5 PM2.5     2024-01-05   0     9     3.7 0.411 
#>  6 PM2.5     2024-01-06   0     9     4.5 0.5   
#>  7 PM2.5     2024-01-07   0     9     6.2 0.689 
#>  8 PM2.5     2024-01-08   0     9     7.5 0.833 
#>  9 PM2.5     2024-01-09   0     9     2.7 0.3   
#> 10 PM2.5     2024-01-10   0     9     7.5 0.833 
#> # ℹ 262 more rows
…
Note: the enquo() function is required for additional parametersa and b in the new_trans() constructor. This creates a defused expression that describes how to evaluate the values but not actually execute the evaluation. For more details, see rlang::enquo()

This concludes our pipeline for computing the AQI:

pipeline <- pipeline |> 
  variable_trans(AQI = trans_affine(minmax, a = high - low, b = low))
pipeline$data$AQI <- round(pipeline$data$AQI)
pipeline$data |> dplyr::select(pollutant, date, low, high, value, minmax, AQI)
#> # A tibble: 272 × 7
#>    pollutant date         low  high value minmax   AQI
#>    <chr>     <date>     <dbl> <dbl> <dbl>  <dbl> <dbl>
#>  1 PM2.5     2024-01-01   9.1  35.4  10   0.0342    10
#>  2 PM2.5     2024-01-02   9.1  35.4   9.1 0          9
#>  3 PM2.5     2024-01-03   0     9     7.1 0.789      7
#>  4 PM2.5     2024-01-04   9.1  35.4  10.3 0.0456    10
#>  5 PM2.5     2024-01-05   0     9     3.7 0.411      4
#>  6 PM2.5     2024-01-06   0     9     4.5 0.5        4
#>  7 PM2.5     2024-01-07   0     9     6.2 0.689      6
#>  8 PM2.5     2024-01-08   0     9     7.5 0.833      8
#>  9 PM2.5     2024-01-09   0     9     2.7 0.3        3
#> 10 PM2.5     2024-01-10   0     9     7.5 0.833      8
#> # ℹ 262 more rows
…
