tidyindex • tidyindex
…
dt <- texas_post_office |>
  init(id = id, time = ym, group = month) |> 
  temporal_aggregate(.agg = temporal_rolling_window(prcp, scale = 24)) |> 
  distribution_fit(.fit = dist_gamma(var = ".agg")) |>
  tidyindex::normalise(.index = norm_quantile(.fit))
dt
#> Index pipeline: 
#> 
#> Steps:
#> temporal: `rolling_window()` -> .agg
#> distribution_fit: `distfit_gamma()` -> .fit
#> normalise: `norm_quantile()` -> .index
#> 
#> Data: 
#> # A tibble: 365 × 14
#>    id       month       ym  prcp  tmax  tmin  tavg  long   lat name   .agg  .fit
#>    <chr>    <dbl>    <mth> <dbl> <dbl> <dbl> <dbl> <dbl> <dbl> <chr> <dbl> <dbl>
#>  1 ASN0004…    12 1991 Dec  1340  31.7 16.1   23.9  151. -28.9 TEXA… 10807 0.216
#>  2 ASN0004…     1 1992 Jan  1732  34.4 18.5   26.5  151. -28.9 TEXA… 11699 0.313
#>  3 ASN0004…     2 1992 Feb  1850  31.2 19.2   25.2  151. -28.9 TEXA… 13091 0.533
#>  4 ASN0004…     3 1992 Mar   146  31.0 14.1   22.6  151. -28.9 TEXA… 13081 0.518
#>  5 ASN0004…     4 1992 Apr   324  27.2 12.6   19.9  151. -28.9 TEXA… 11876 0.333
#>  6 ASN0004…     5 1992 May   597  22.0  9.12  15.6  151. -28.9 TEXA… 11861 0.340
#>  7 ASN0004…     6 1992 Jun    76  18.6  2.49  10.5  151. -28.9 TEXA… 11775 0.320
#>  8 ASN0004…     7 1992 Jul   100  19.8  1.73  10.8  151. -28.9 TEXA… 11735 0.319
#>  9 ASN0004…     8 1992 Aug   578  20.8  4.01  12.4  151. -28.9 TEXA… 12213 0.397
#> 10 ASN0004…     9 1992 Sep   416  22.8  6.41  14.6  151. -28.9 TEXA… 12439 0.436
#> # ℹ 355 more rows
#> # ℹ 2 more variables: .fit_obj <list>, .index <dbl>
…
